%YAML 1.1
%TAG !u! tag:unity3d.com,2011:
--- !u!114 &11400000
MonoBehaviour:
  m_ObjectHideFlags: 0
  m_CorrespondingSourceObject: {fileID: 0}
  m_PrefabInstance: {fileID: 0}
  m_PrefabAsset: {fileID: 0}
  m_GameObject: {fileID: 0}
  m_Enabled: 1
  m_EditorHideFlags: 0
  m_Script: {fileID: 11500000, guid: 9b3ac2a7c14f84437a32600544021f64, type: 3}
  m_Name: DefineSymbolSetting
  m_EditorClassIdentifier: 
  DefineSymbolList:
  - Key: SHOW_DEBUG
    Value: 
    Info: "Debug\u306E\u30ED\u30B0\u306A\u3069\u3092\u8868\u793A\u3059\u308B\u3088\u3046\u306B"
    IsEnabled: 1
  - Key: SHOW_AD_PREVIEW
    Value: 
    Info: "\u5E83\u544A\u306E\u30D7\u30EC\u30D3\u30E5\u30FC\u3092\u8868\u793A"
    IsEnabled: 0
  - Key: SHOW_FPS
    Value: 
    Info: "FPS\u3092\u8868\u793A\u3059\u308B"
    IsEnabled: 0
  - Key: NO_AD
    Value: 
    Info: "\u5E83\u544A\u3092\u8868\u793A\u3057\u306A\u3044"
    IsEnabled: 0
  - Key: NO_NAITIVE
    Value: 
    Info: "\u30CD\u30A4\u30C6\u30A3\u30D6\u5468\u308A\u306E\u51E6\u7406\u3092\u5B9F\u884C\u3057\u306A\u3044\u3088\u3046\u306B"
    IsEnabled: 0
  - Key: DATA_RESET
    Value: 
    Info: "\u5168\u30C7\u30FC\u30BF\u3092\u8D77\u52D5\u6642\u306B\u6BCE\u56DE\u524A\u9664\u3059\u308B"
    IsEnabled: 0
  - Key: CAN_PLAY_ALL_STAGE
    Value: 
    Info: "\u5168\u30B9\u30C6\u30FC\u30B8\u3092\u9078\u629E\u51FA\u6765\u308B"
    IsEnabled: 0
